{
  "name": "microxrceddsgen",
  "version": "1.1.1",
  "description": "DDS Generator",
  "homepage": "https://github.com/eProsima/Micro-XRCE-DDS-Gen",
  "license": "Apache-2.0",
  "supports": "native"
}
